Chapter 5 Manipulating and analyzing data with dplyr | Data manipulation and visualisation with R
…
## load the tidyverse packages, incl. dplyr
library("tidyverse")

5.2 Loading data with tidyverseCopy link

Instead of read.csv(), we will read in our data using the read_csv() function, from the
tidyverse package readr, .

rna <- read_csv("data/rnaseq.csv")

## view the data
rna

## # A tibble: 32,428 × 19
##    gene    sample  expression organism   age sex   infection strain  time tissue
##    <chr>   <chr>        <dbl> <chr>    <dbl> <chr> <chr>     <chr>  <dbl> <chr> 
##  1 Asl     GSM254…       1170 Mus mus…     8 Fema… Influenz… C57BL…     8 Cereb…
##  2 Apod    GSM254…      36194 Mus mus…     8 Fema… Influenz… C57BL…     8 Cereb…
##  3 Cyp2d22 GSM254…       4060 Mus mus…     8 Fema… Influenz… C57BL…     8 Cereb…
##  4 Klk6    GSM254…        287 Mus mus…     8 Fema… Influenz… C57BL…     8 Cereb…
##  5 Fcrls   GSM254…         85 Mus mus…     8 Fema… Influenz… C57BL…     8 Cereb…
##  6 Slc2a4  GSM254…        782 Mus mus…     8 Fema… Influenz… C57BL…     8 Cereb…
##  7 Exd2    GSM254…       1619 Mus mus…     8 Fema… Influenz… C57BL…     8 Cereb…
##  8 Gjc2    GSM254…        288 Mus mus…     8 Fema… Influenz… C57BL…     8 Cereb…
##  9 Plp1    GSM254…      43217 Mus mus…     8 Fema… Influenz… C57BL…     8 Cereb…
## 10 Gnb4    GSM254…       1071 Mus mus…     8 Fema… Influenz… C57BL…     8 Cereb…
## # … with 32,418 more rows, and 9 more variables: mouse <dbl>, ENTREZID <dbl>,
## #   product <chr>, ensembl_gene_id <chr>, external_synonym <chr>,
## #   chromosome_name <chr>, gene_biotype <chr>, phenotype_description <chr>,
## #   hsapiens_homolog_associated_gene_name <chr>
…
group_by() and summarize(): create summary statistics on grouped data

arrange(): sort results

count(): count discrete values

5.3 Selecting columns and filtering rowsCopy link

To select columns of a data frame, use select(). The first argument
to this function is the data frame (rna), and the subsequent
arguments are the columns to keep.

select(rna, gene, sample, tissue, expression)

## # A tibble: 32,428 × 4
##    gene    sample     tissue     expression
##    <chr>   <chr>      <chr>           <dbl>
##  1 Asl     GSM2545336 Cerebellum       1170
##  2 Apod    GSM2545336 Cerebellum      36194
##  3 Cyp2d22 GSM2545336 Cerebellum       4060
##  4 Klk6    GSM2545336 Cerebellum        287
##  5 Fcrls   GSM2545336 Cerebellum         85
##  6 Slc2a4  GSM2545336 Cerebellum        782
##  7 Exd2    GSM2545336 Cerebellum       1619
##  8 Gjc2    GSM2545336 Cerebellum        288
##  9 Plp1    GSM2545336 Cerebellum      43217
## 10 Gnb4    GSM2545336 Cerebellum       1071
## # … with 32,418 more rows

To select all columns except certain ones, put a “-” in front of
the variable to exclude it.

select(rna, -tissue, -organism)

## # A tibble: 32,428 × 17
##    gene    sample     expression   age sex    infection strain  time mouse ENTREZID
##    <chr>   <chr>           <dbl> <dbl> <chr>  <chr>     <chr>  <dbl> <dbl>    <dbl>
##  1 Asl     GSM2545336       1170     8 Female Influenz… C57BL…     8    14   109900
##  2 Apod    GSM2545336      36194     8 Female Influenz… C57BL…     8    14    11815
##  3 Cyp2d22 GSM2545336       4060     8 Female Influenz… C57BL…     8    14    56448
##  4 Klk6    GSM2545336        287     8 Female Influenz… C57BL…     8    14    19144
##  5 Fcrls   GSM2545336         85     8 Female Influenz… C57BL…     8    14    80891
##  6 Slc2a4  GSM2545336        782     8 Female Influenz… C57BL…     8    14    20528
##  7 Exd2    GSM2545336       1619     8 Female Influenz… C57BL…     8    14    97827
##  8 Gjc2    GSM2545336        288     8 Female Influenz… C57BL…     8    14   118454
##  9 Plp1    GSM2545336      43217     8 Female Influenz… C57BL…     8    14    18823
## 10 Gnb4    GSM2545336       1071     8 Female Influenz… C57BL…     8    14    14696
## # … with 32,418 more rows, and 7 more variables: product <chr>,
## #   ensembl_gene_id <chr>, external_synonym <chr>, chromosome_name <chr>,
## #   gene_biotype <chr>, phenotype_description <chr>,
## #   hsapiens_homolog_associated_gene_name <chr>

This will select all the variables in rna except tissue
and organism.

To choose rows based on a specific criteria, use filter():

filter(rna, sex == "Male")

## # A tibble: 14,740 × 19
##    gene    sample  expression organism   age sex   infection strain  time tissue
##    <chr>   <chr>        <dbl> <chr>    <dbl> <chr> <chr>     <chr>  <dbl> <chr> 
##  1 Asl     GSM254…        626 Mus mus…     8 Male  Influenz… C57BL…     4 Cereb…
##  2 Apod    GSM254…      13021 Mus mus…     8 Male  Influenz… C57BL…     4 Cereb…
##  3 Cyp2d22 GSM254…       2171 Mus mus…     8 Male  Influenz… C57BL…     4 Cereb…
##  4 Klk6    GSM254…        448 Mus mus…     8 Male  Influenz… C57BL…     4 Cereb…
##  5 Fcrls   GSM254…        180 Mus mus…     8 Male  Influenz… C57BL…     4 Cereb…
##  6 Slc2a4  GSM254…        313 Mus mus…     8 Male  Influenz… C57BL…     4 Cereb…
##  7 Exd2    GSM254…       2366 Mus mus…     8 Male  Influenz… C57BL…     4 Cereb…
##  8 Gjc2    GSM254…        310 Mus mus…     8 Male  Influenz… C57BL…     4 Cereb…
##  9 Plp1    GSM254…      53126 Mus mus…     8 Male  Influenz… C57BL…     4 Cereb…
## 10 Gnb4    GSM254…       1355 Mus mus…     8 Male  Influenz… C57BL…     4 Cereb…
## # … with 14,730 more rows, and 9 more variables: mouse <dbl>, ENTREZID <dbl>,
## #   product <chr>, ensembl_gene_id <chr>, external_synonym <chr>,
## #   chromosome_name <chr>, gene_biotype <chr>, phenotype_description <chr>,
## #   hsapiens_homolog_associated_gene_name <chr>

filter(rna, sex == "Male" & infection == "NonInfected")

## # A tibble: 4,422 × 19
##    gene    sample  expression organism   age sex   infection strain  time tissue
##    <chr>   <chr>        <dbl> <chr>    <dbl> <chr> <chr>     <chr>  <dbl> <chr> 
##  1 Asl     GSM254…        535 Mus mus…     8 Male  NonInfec… C57BL…     0 Cereb…
##  2 Apod    GSM254…      13668 Mus mus…     8 Male  NonInfec… C57BL…     0 Cereb…
##  3 Cyp2d22 GSM254…       2008 Mus mus…     8 Male  NonInfec… C57BL…     0 Cereb…
##  4 Klk6    GSM254…       1101 Mus mus…     8 Male  NonInfec… C57BL…     0 Cereb…
##  5 Fcrls   GSM254…        375 Mus mus…     8 Male  NonInfec… C57BL…     0 Cereb…
##  6 Slc2a4  GSM254…        249 Mus mus…     8 Male  NonInfec… C57BL…     0 Cereb…
##  7 Exd2    GSM254…       3126 Mus mus…     8 Male  NonInfec… C57BL…     0 Cereb…
##  8 Gjc2    GSM254…        791 Mus mus…     8 Male  NonInfec… C57BL…     0 Cereb…
##  9 Plp1    GSM254…      98658 Mus mus…     8 Male  NonInfec… C57BL…     0 Cereb…
## 10 Gnb4    GSM254…       2437 Mus mus…     8 Male  NonInfec… C57BL…     0 Cereb…
## # … with 4,412 more rows, and 9 more variables: mouse <dbl>, ENTREZID <dbl>,
## #   product <chr>, ensembl_gene_id <chr>, external_synonym <chr>,
## #   chromosome_name <chr>, gene_biotype <chr>, phenotype_description <chr>,
## #   hsapiens_homolog_associated_gene_name <chr>

5.4 PipesCopy link

What if you want to select and filter at the same time? There are three
ways to do this: use intermediate steps, nested functions, or pipes.

With intermediate steps, you create a temporary data frame and use
that as input to the next function, like this:

rna2 <- filter(rna, sex == "Male")
rna3 <- select(rna2, gene, sample, tissue, expression)
rna3

## # A tibble: 14,740 × 4
##    gene    sample     tissue     expression
##    <chr>   <chr>      <chr>           <dbl>
##  1 Asl     GSM2545340 Cerebellum        626
##  2 Apod    GSM2545340 Cerebellum      13021
##  3 Cyp2d22 GSM2545340 Cerebellum       2171
##  4 Klk6    GSM2545340 Cerebellum        448
##  5 Fcrls   GSM2545340 Cerebellum        180
##  6 Slc2a4  GSM2545340 Cerebellum        313
##  7 Exd2    GSM2545340 Cerebellum       2366
##  8 Gjc2    GSM2545340 Cerebellum        310
##  9 Plp1    GSM2545340 Cerebellum      53126
## 10 Gnb4    GSM2545340 Cerebellum       1355
## # … with 14,730 more rows

This is readable, but can clutter up your workspace with lots of intermediate objects
that you have to name individually. With multiple steps, that can be hard to keep track of.

You can also nest functions (i.e. one function inside of another), like this:

rna3 <- select(filter(rna, sex == "Male"), gene, sample, tissue, expression)
rna3

## # A tibble: 14,740 × 4
##    gene    sample     tissue     expression
##    <chr>   <chr>      <chr>           <dbl>
##  1 Asl     GSM2545340 Cerebellum        626
##  2 Apod    GSM2545340 Cerebellum      13021
##  3 Cyp2d22 GSM2545340 Cerebellum       2171
##  4 Klk6    GSM2545340 Cerebellum        448
##  5 Fcrls   GSM2545340 Cerebellum        180
##  6 Slc2a4  GSM2545340 Cerebellum        313
##  7 Exd2    GSM2545340 Cerebellum       2366
##  8 Gjc2    GSM2545340 Cerebellum        310
##  9 Plp1    GSM2545340 Cerebellum      53126
## 10 Gnb4    GSM2545340 Cerebellum       1355
## # … with 14,730 more rows
…
In the above code, we use the pipe to send the rna dataset first through
filter() to keep rows where sex is Male, then through select()
to keep only the gene, sample, tissue, and expressioncolumns.

The pipe %>% takes the object on its left and passes it directly as the first
argument to the function on its right, we don’t need to explicitly include the data frame
as an argument to the filter() and select() functions any more.

rna %>% 
  filter(sex == "Male") %>% 
  select(gene, sample, tissue, expression)

## # A tibble: 14,740 × 4
##    gene    sample     tissue     expression
##    <chr>   <chr>      <chr>           <dbl>
##  1 Asl     GSM2545340 Cerebellum        626
##  2 Apod    GSM2545340 Cerebellum      13021
##  3 Cyp2d22 GSM2545340 Cerebellum       2171
##  4 Klk6    GSM2545340 Cerebellum        448
##  5 Fcrls   GSM2545340 Cerebellum        180
##  6 Slc2a4  GSM2545340 Cerebellum        313
##  7 Exd2    GSM2545340 Cerebellum       2366
##  8 Gjc2    GSM2545340 Cerebellum        310
##  9 Plp1    GSM2545340 Cerebellum      53126
## 10 Gnb4    GSM2545340 Cerebellum       1355
## # … with 14,730 more rows
…
The dplyr functions by themselves are somewhat
simple, but by combining them into linear workflows with the pipe, we can accomplish
more complex manipulations of data frames.

If we want to create a new object with this smaller version of the data, we
can assign it a new name:

rna3 <- rna %>% 
  filter(sex == "Male") %>% 
  select(gene, sample, tissue, expression)

rna3

## # A tibble: 14,740 × 4
##    gene    sample     tissue     expression
##    <chr>   <chr>      <chr>           <dbl>
##  1 Asl     GSM2545340 Cerebellum        626
##  2 Apod    GSM2545340 Cerebellum      13021
##  3 Cyp2d22 GSM2545340 Cerebellum       2171
##  4 Klk6    GSM2545340 Cerebellum        448
##  5 Fcrls   GSM2545340 Cerebellum        180
##  6 Slc2a4  GSM2545340 Cerebellum        313
##  7 Exd2    GSM2545340 Cerebellum       2366
##  8 Gjc2    GSM2545340 Cerebellum        310
##  9 Plp1    GSM2545340 Cerebellum      53126
## 10 Gnb4    GSM2545340 Cerebellum       1355
## # … with 14,730 more rows
…
5.5 MutateCopy link

Frequently you’ll want to create new columns based on the values in existing
columns, for example to do unit conversions, or to find the ratio of values in two
columns. For this we’ll use mutate().

To create a new column of time in hours:

rna %>%  
  mutate(time_hours = time * 24) %>% 
  select(time, time_hours) 

## # A tibble: 32,428 × 2
##     time time_hours
##    <dbl>      <dbl>
##  1     8        192
##  2     8        192
##  3     8        192
##  4     8        192
##  5     8        192
##  6     8        192
##  7     8        192
##  8     8        192
##  9     8        192
## 10     8        192
## # … with 32,418 more rows

You can also create a second new column based on the first new column within the same call of mutate():

rna %>%  
  mutate(time_hours = time * 24, time_mn = time_hours * 60) %>% 
  select(time, time_hours, time_mn) 

## # A tibble: 32,428 × 3
##     time time_hours time_mn
##    <dbl>      <dbl>   <dbl>
##  1     8        192   11520
##  2     8        192   11520
##  3     8        192   11520
##  4     8        192   11520
##  5     8        192   11520
##  6     8        192   11520
##  7     8        192   11520
##  8     8        192   11520
##  9     8        192   11520
## 10     8        192   11520
## # … with 32,418 more rows

Now let’s imagine we are interested in the human homologs of the mouse
genes analysed in this dataset. This information can be found in the
last column of the rna tibble, named hsapiens_homolog_associated_gene_name.

rna %>% 
  select(gene, hsapiens_homolog_associated_gene_name)

## # A tibble: 32,428 × 2
##    gene    hsapiens_homolog_associated_gene_name
##    <chr>   <chr>                                
##  1 Asl     ASL                                  
##  2 Apod    APOD                                 
##  3 Cyp2d22 CYP2D6                               
##  4 Klk6    KLK6                                 
##  5 Fcrls   FCRL4                                
##  6 Slc2a4  SLC2A4                               
##  7 Exd2    EXD2                                 
##  8 Gjc2    GJC2                                 
##  9 Plp1    PLP1                                 
## 10 Gnb4    GNB4                                 
## # … with 32,418 more rows

Some mouse gene have no human homologs. These can be retrieved using a filter()
in the chain, and the is.na() function that determines whether something is an NA.

rna %>% 
  select(gene, hsapiens_homolog_associated_gene_name) %>% 
  filter(is.na(hsapiens_homolog_associated_gene_name))

## # A tibble: 4,774 × 2
##    gene     hsapiens_homolog_associated_gene_name
##    <chr>    <chr>                                
##  1 Prodh    <NA>                                 
##  2 Icosl    <NA>                                 
##  3 Tssk5    <NA>                                 
##  4 Vmn2r1   <NA>                                 
##  5 Gm10654  <NA>                                 
##  6 Hexa     <NA>                                 
##  7 Sult1a1  <NA>                                 
##  8 Gm6277   <NA>                                 
##  9 Amt      <NA>                                 
## 10 Tmem198b <NA>                                 
## # … with 4,764 more rows

If we want to keep only mouse gene that have a human homolog, we can insert a “!”
symbol that negates the result, so we’re asking for every row where
hsapiens_homolog_associated_gene_name is not an NA.

The first few rows of the output are full of NAs, so if we wanted to remove
those we could insert a filter() in the chain:

rna %>% 
  select(gene, hsapiens_homolog_associated_gene_name) %>% 
  filter(!is.na(hsapiens_homolog_associated_gene_name))

## # A tibble: 27,654 × 2
##    gene    hsapiens_homolog_associated_gene_name
##    <chr>   <chr>                                
##  1 Asl     ASL                                  
##  2 Apod    APOD                                 
##  3 Cyp2d22 CYP2D6                               
##  4 Klk6    KLK6                                 
##  5 Fcrls   FCRL4                                
##  6 Slc2a4  SLC2A4                               
##  7 Exd2    EXD2                                 
##  8 Gjc2    GJC2                                 
##  9 Plp1    PLP1                                 
## 10 Gnb4    GNB4                                 
## # … with 27,644 more rows
…
Hint: think about how the commands should be ordered to produce
this data frame!

► Solution

rna %>% 
  filter(chromosome_name != "X", chromosome_name != "Y") %>%
  mutate(log_expression = log(expression)) %>% 
  select(gene, chromosome_name, phenotype_description, sample, log_expression) %>% 
  filter(!is.na(phenotype_description))

## # A tibble: 20,592 × 5
##    gene    chromosome_name phenotype_description          sample  log_expression
##    <chr>   <chr>           <chr>                          <chr>            <dbl>
##  1 Asl     5               abnormal circulating amino ac… GSM254…           7.06
##  2 Apod    16              abnormal lipid homeostasis     GSM254…          10.5 
##  3 Cyp2d22 15              abnormal skin morphology       GSM254…           8.31
##  4 Klk6    7               abnormal cytokine level        GSM254…           5.66
##  5 Fcrls   3               decreased CD8-positive alpha-… GSM254…           4.44
##  6 Slc2a4  11              abnormal circulating glucose … GSM254…           6.66
##  7 Gjc2    11              Purkinje cell degeneration     GSM254…           5.66
##  8 Gnb4    3               abnormal behavior              GSM254…           6.98
##  9 Tnc     4               abnormal CNS synaptic transmi… GSM254…           5.39
## 10 Trf     9               abnormal embryo size           GSM254…           9.18
## # … with 20,582 more rows

5.6 Split-apply-combine data analysisCopy link

Many data analysis tasks can be approached using the
split-apply-combine paradigm: split the data into groups, apply some
analysis to each group, and then combine the results. dplyr
makes this very easy through the use of the group_by() function.

rna %>%
  group_by(gene)

## # A tibble: 32,428 × 19
## # Groups:   gene [1,474]
##    gene    sample  expression organism   age sex   infection strain  time tissue
##    <chr>   <chr>        <dbl> <chr>    <dbl> <chr> <chr>     <chr>  <dbl> <chr> 
##  1 Asl     GSM254…       1170 Mus mus…     8 Fema… Influenz… C57BL…     8 Cereb…
##  2 Apod    GSM254…      36194 Mus mus…     8 Fema… Influenz… C57BL…     8 Cereb…
##  3 Cyp2d22 GSM254…       4060 Mus mus…     8 Fema… Influenz… C57BL…     8 Cereb…
##  4 Klk6    GSM254…        287 Mus mus…     8 Fema… Influenz… C57BL…     8 Cereb…
##  5 Fcrls   GSM254…         85 Mus mus…     8 Fema… Influenz… C57BL…     8 Cereb…
##  6 Slc2a4  GSM254…        782 Mus mus…     8 Fema… Influenz… C57BL…     8 Cereb…
##  7 Exd2    GSM254…       1619 Mus mus…     8 Fema… Influenz… C57BL…     8 Cereb…
##  8 Gjc2    GSM254…        288 Mus mus…     8 Fema… Influenz… C57BL…     8 Cereb…
##  9 Plp1    GSM254…      43217 Mus mus…     8 Fema… Influenz… C57BL…     8 Cereb…
## 10 Gnb4    GSM254…       1071 Mus mus…     8 Fema… Influenz… C57BL…     8 Cereb…
## # … with 32,418 more rows, and 9 more variables: mouse <dbl>, ENTREZID <dbl>,
## #   product <chr>, ensembl_gene_id <chr>, external_synonym <chr>,
## #   chromosome_name <chr>, gene_biotype <chr>, phenotype_description <chr>,
## #   hsapiens_homolog_associated_gene_name <chr>
…
