Chapter 8 Next steps | Data manipulation and visualisation with R
…
The metadata slots can grow additional co-variates
(columns) without affecting the other structures.

8.1.1 Creating a SummarizedExperimentCopy link

Let’s return to the rna dataset that we have used previously.

rna <- read_csv("data/rnaseq.csv")
rna

## # A tibble: 32,428 × 19
##    gene    sample  expression organism   age sex   infection strain  time tissue
##    <chr>   <chr>        <dbl> <chr>    <dbl> <chr> <chr>     <chr>  <dbl> <chr> 
##  1 Asl     GSM254…       1170 Mus mus…     8 Fema… Influenz… C57BL…     8 Cereb…
##  2 Apod    GSM254…      36194 Mus mus…     8 Fema… Influenz… C57BL…     8 Cereb…
##  3 Cyp2d22 GSM254…       4060 Mus mus…     8 Fema… Influenz… C57BL…     8 Cereb…
##  4 Klk6    GSM254…        287 Mus mus…     8 Fema… Influenz… C57BL…     8 Cereb…
##  5 Fcrls   GSM254…         85 Mus mus…     8 Fema… Influenz… C57BL…     8 Cereb…
##  6 Slc2a4  GSM254…        782 Mus mus…     8 Fema… Influenz… C57BL…     8 Cereb…
##  7 Exd2    GSM254…       1619 Mus mus…     8 Fema… Influenz… C57BL…     8 Cereb…
##  8 Gjc2    GSM254…        288 Mus mus…     8 Fema… Influenz… C57BL…     8 Cereb…
##  9 Plp1    GSM254…      43217 Mus mus…     8 Fema… Influenz… C57BL…     8 Cereb…
## 10 Gnb4    GSM254…       1071 Mus mus…     8 Fema… Influenz… C57BL…     8 Cereb…
## # … with 32,418 more rows, and 9 more variables: mouse <dbl>, ENTREZID <dbl>,
## #   product <chr>, ensembl_gene_id <chr>, external_synonym <chr>,
## #   chromosome_name <chr>, gene_biotype <chr>, phenotype_description <chr>,
## #   hsapiens_homolog_associated_gene_name <chr>
…
table describing the samples

sample_metadata <- rna %>%
  select(sample, organism, age, sex, infection, strain, time, tissue, mouse) 

# Many lines are repeated, as in rna, each gene (n = 1474) was analysed in each sample!
sample_metadata

## # A tibble: 32,428 × 9
##    sample     organism       age sex    infection  strain   time tissue    mouse
##    <chr>      <chr>        <dbl> <chr>  <chr>      <chr>   <dbl> <chr>     <dbl>
##  1 GSM2545336 Mus musculus     8 Female InfluenzaA C57BL/6     8 Cerebell…    14
##  2 GSM2545336 Mus musculus     8 Female InfluenzaA C57BL/6     8 Cerebell…    14
##  3 GSM2545336 Mus musculus     8 Female InfluenzaA C57BL/6     8 Cerebell…    14
##  4 GSM2545336 Mus musculus     8 Female InfluenzaA C57BL/6     8 Cerebell…    14
##  5 GSM2545336 Mus musculus     8 Female InfluenzaA C57BL/6     8 Cerebell…    14
##  6 GSM2545336 Mus musculus     8 Female InfluenzaA C57BL/6     8 Cerebell…    14
##  7 GSM2545336 Mus musculus     8 Female InfluenzaA C57BL/6     8 Cerebell…    14
##  8 GSM2545336 Mus musculus     8 Female InfluenzaA C57BL/6     8 Cerebell…    14
##  9 GSM2545336 Mus musculus     8 Female InfluenzaA C57BL/6     8 Cerebell…    14
## 10 GSM2545336 Mus musculus     8 Female InfluenzaA C57BL/6     8 Cerebell…    14
## # … with 32,418 more rows

# Remove redundancy
sample_metadata <- unique(sample_metadata)
sample_metadata

## # A tibble: 22 × 9
##    sample     organism       age sex    infection   strain   time tissue   mouse
##    <chr>      <chr>        <dbl> <chr>  <chr>       <chr>   <dbl> <chr>    <dbl>
##  1 GSM2545336 Mus musculus     8 Female InfluenzaA  C57BL/6     8 Cerebel…    14
##  2 GSM2545337 Mus musculus     8 Female NonInfected C57BL/6     0 Cerebel…     9
##  3 GSM2545338 Mus musculus     8 Female NonInfected C57BL/6     0 Cerebel…    10
##  4 GSM2545339 Mus musculus     8 Female InfluenzaA  C57BL/6     4 Cerebel…    15
##  5 GSM2545340 Mus musculus     8 Male   InfluenzaA  C57BL/6     4 Cerebel…    18
##  6 GSM2545341 Mus musculus     8 Male   InfluenzaA  C57BL/6     8 Cerebel…     6
##  7 GSM2545342 Mus musculus     8 Female InfluenzaA  C57BL/6     8 Cerebel…     5
##  8 GSM2545343 Mus musculus     8 Male   NonInfected C57BL/6     0 Cerebel…    11
##  9 GSM2545344 Mus musculus     8 Female InfluenzaA  C57BL/6     4 Cerebel…    22
## 10 GSM2545345 Mus musculus     8 Male   InfluenzaA  C57BL/6     4 Cerebel…    13
## # … with 12 more rows

table describing the genes

gene_metadata <- rna %>%
  select(gene, ENTREZID, product, ensembl_gene_id, external_synonym, chromosome_name, gene_biotype, phenotype_description, hsapiens_homolog_associated_gene_name)      

# Remove redundancy
gene_metadata <- unique(gene_metadata)
gene_metadata

## # A tibble: 1,474 × 9
##    gene    ENTREZID product     ensembl_gene_id external_synonym chromosome_name
##    <chr>      <dbl> <chr>       <chr>           <chr>            <chr>          
##  1 Asl       109900 argininosu… ENSMUSG0000002… 2510006M18Rik    5              
##  2 Apod       11815 apolipopro… ENSMUSG0000002… <NA>             16             
##  3 Cyp2d22    56448 cytochrome… ENSMUSG0000006… 2D22             15             
##  4 Klk6       19144 kallikrein… ENSMUSG0000005… Bssp             7              
##  5 Fcrls      80891 Fc recepto… ENSMUSG0000001… 2810439C17Rik    3              
##  6 Slc2a4     20528 solute car… ENSMUSG0000001… Glut-4           11             
##  7 Exd2       97827 exonucleas… ENSMUSG0000003… 4930539P14Rik    12             
##  8 Gjc2      118454 gap juncti… ENSMUSG0000004… B230382L12Rik    11             
##  9 Plp1       18823 proteolipi… ENSMUSG0000003… DM20             X              
## 10 Gnb4       14696 guanine nu… ENSMUSG0000002… 6720453A21Rik    3              
## # … with 1,464 more rows, and 3 more variables: gene_biotype <chr>,
## #   phenotype_description <chr>, hsapiens_homolog_associated_gene_name <chr>
…
